Dextcsg(m)  Dintcsg(m) Dexttj(m) force(N/m)
0.244475	0.2204974	0.15875	43781.70866
Work[N-m/m]	Vol[m3/m]
0.000000000000E+00	0.000000000000E+00
1.034986428476E+08	1.589166966848E-05
2.069972856952E+08	2.604108258008E-05
3.104959285428E+08	3.273178716754E-05
4.139945713904E+08	4.131520410035E-05
6.209918570857E+08	5.182617138584E-05
8.279891427809E+08	6.307758706853E-05
1.034986428476E+09	6.915003980040E-05
1.241983714171E+09	7.842259887301E-05
1.448980999867E+09	8.442390079921E-05
1.655978285562E+09	9.269125878922E-05